{
  "companies": {
    "active": [
      {
        "active": 49,
        "id": 84,
        "name": "google.ru",
        "new": 55,
        "resolved": 30
      },
      {
        "active": 10,
        "id": 26,
        "name": "wikispaces.com",
        "new": 4,
        "resolved": 65
      },
      {
        "active": 44,
        "id": 42,
        "name": "hatena.ne.jp",
        "new": 5,
        "resolved": 42
      },
      {
        "active": 52,
        "id": 46,
        "name": "digg.com",
        "new": 37,
        "resolved": 98
      },
      {
        "active": 78,
        "id": 96,
        "name": "geocities.jp",
        "new": 66,
        "resolved": 25
      },
      {
        "active": 65,
        "id": 52,
        "name": "chronoengine.com",
        "new": 71,
        "resolved": 96
      },
      {
        "active": 14,
        "id": 13,
        "name": "huffingtonpost.com",
        "new": 46,
        "resolved": 99
      }
    ],
    "new": [
      {
        "active": 66,
        "id": 79,
        "name": "delicious.com",
        "new": 7,
        "resolved": 22
      },
      {
        "active": 2,
        "id": 12,
        "name": "skyrock.com",
        "new": 35,
        "resolved": 94
      },
      {
        "active": 84,
        "id": 98,
        "name": "un.org",
        "new": 39,
        "resolved": 21
      },
      {
        "active": 27,
        "id": 89,
        "name": "va.gov",
        "new": 90,
        "resolved": 10
      },
      {
        "active": 51,
        "id": 50,
        "name": "networkadvertising.org",
        "new": 82,
        "resolved": 27
      },
      {
        "active": 42,
        "id": 45,
        "name": "webmd.com",
        "new": 81,
        "resolved": 58
      },
      {
        "active": 77,
        "id": 96,
        "name": "imgur.com",
        "new": 5,
        "resolved": 61
      }
    ],
    "resolved": [
      {
        "active": 81,
        "id": 22,
        "name": "shutterfly.com",
        "new": 96,
        "resolved": 61
      },
      {
        "active": 54,
        "id": 63,
        "name": "squarespace.com",
        "new": 10,
        "resolved": 58
      },
      {
        "active": 17,
        "id": 1,
        "name": "craigslist.org",
        "new": 2,
        "resolved": 77
      },
      {
        "active": 8,
        "id": 48,
        "name": "pcworld.com",
        "new": 7,
        "resolved": 58
      },
      {
        "active": 90,
        "id": 55,
        "name": "scribd.com",
        "new": 14,
        "resolved": 38
      },
      {
        "active": 80,
        "id": 28,
        "name": "google.co.jp",
        "new": 97,
        "resolved": 36
      },
      {
        "active": 87,
        "id": 38,
        "name": "ca.gov",
        "new": 28,
        "resolved": 59
      }
    ],
    "pageData": [
      {
        "metadata": {
          "page": 0,
          "per_page": 10,
          "total": 30,
          "total_pages": 3
        },
        "data": [
          {
            "id": "glty49efnDfQZkQXBoGQ5x4Xarw1Zz3FXNDQ8y6qZQo=",
            "name": "sciencedaily.com",
            "sm_id": "one",
            "company_id": 1
          },
          {
            "id": "glty49efnDfQZkQXBoGQ5x4Xarw1Zz3FXNDQ8y6qZQo=",
            "name": "npr.org",
            "sm_id": "one",
            "company_id": 2
          },
          {
            "id": "glty49efnDfQZkQXBoGQ5x4Xarw1Zz3FXNDQ8y6qZQo=",
            "name": "naver.com",
            "sm_id": "one",
            "company_id": 3
          },
          {
            "id": "2+gRtcb5tg4K0Ofh5ivnkMeCUA1VtHM3qFtddVqwdZk=",
            "name": "chicagotribune.com",
            "sm_id": "one",
            "company_id": 4
          },
          {
            "id": "2+gRtcb5tg4K0Ofh5ivnkMeCUA1VtHM3qFtddVqwdZk=",
            "name": "51.la",
            "sm_id": "one",
            "company_id": 5
          },
          {
            "id": "RjQ9HGpc/WzGuQkCm9C9JAoimFZMCZWsm7jOh/PJQq8=",
            "name": "ted.com",
            "sm_id": "one",
            "company_id": 6
          },
          {
            "id": "2+gRtcb5tg4K0Ofh5ivnkMeCUA1VtHM3qFtddVqwdZk=",
            "name": "jalbum.net",
            "sm_id": "one",
            "company_id": 7
          },
          {
            "id": "glty49efnDfQZkQXBoGQ5x4Xarw1Zz3FXNDQ8y6qZQo=",
            "name": "yahoo.co.jp",
            "sm_id": "one",
            "company_id": 8
          },
          {
            "id": "2+gRtcb5tg4K0Ofh5ivnkMeCUA1VtHM3qFtddVqwdZk=",
            "name": "odnoklassniki.ru",
            "sm_id": "one",
            "company_id": 9
          },
          {
            "id": "RjQ9HGpc/WzGuQkCm9C9JAoimFZMCZWsm7jOh/PJQq8=",
            "name": "ucsd.edu",
            "sm_id": "one",
            "company_id": 10
          }
        ]
      },
      {
        "metadata": {
          "page": 1,
          "per_page": 10,
          "total": 30,
          "total_pages": 3
        },
        "data": [
          {
            "id": "glty49efnDfQZkQXBoGQ5x4Xarw1Zz3FXNDQ8y6qZQo=",
            "name": "51.la",
            "sm_id": "one",
            "company_id": 1
          },
          {
            "id": "glty49efnDfQZkQXBoGQ5x4Xarw1Zz3FXNDQ8y6qZQo=",
            "name": "businessinsider.com",
            "sm_id": "one",
            "company_id": 2
          },
          {
            "id": "RjQ9HGpc/WzGuQkCm9C9JAoimFZMCZWsm7jOh/PJQq8=",
            "name": "163.com",
            "sm_id": "one",
            "company_id": 3
          },
          {
            "id": "RjQ9HGpc/WzGuQkCm9C9JAoimFZMCZWsm7jOh/PJQq8=",
            "name": "toplist.cz",
            "sm_id": "one",
            "company_id": 4
          },
          {
            "id": "RjQ9HGpc/WzGuQkCm9C9JAoimFZMCZWsm7jOh/PJQq8=",
            "name": "last.fm",
            "sm_id": "one",
            "company_id": 5
          },
          {
            "id": "RjQ9HGpc/WzGuQkCm9C9JAoimFZMCZWsm7jOh/PJQq8=",
            "name": "weebly.com",
            "sm_id": "one",
            "company_id": 6
          },
          {
            "id": "2+gRtcb5tg4K0Ofh5ivnkMeCUA1VtHM3qFtddVqwdZk=",
            "name": "sciencedaily.com",
            "sm_id": "one",
            "company_id": 7
          },
          {
            "id": "RjQ9HGpc/WzGuQkCm9C9JAoimFZMCZWsm7jOh/PJQq8=",
            "name": "latimes.com",
            "sm_id": "one",
            "company_id": 8
          },
          {
            "id": "RjQ9HGpc/WzGuQkCm9C9JAoimFZMCZWsm7jOh/PJQq8=",
            "name": "arstechnica.com",
            "sm_id": "one",
            "company_id": 9
          },
          {
            "id": "2+gRtcb5tg4K0Ofh5ivnkMeCUA1VtHM3qFtddVqwdZk=",
            "name": "google.nl",
            "sm_id": "one",
            "company_id": 10
          }
        ]
      },
      {
        "metadata": {
          "page": 2,
          "per_page": 10,
          "total": 30,
          "total_pages": 3
        },
        "data": [
          {
            "id": "glty49efnDfQZkQXBoGQ5x4Xarw1Zz3FXNDQ8y6qZQo=",
            "name": "dmoz.org",
            "sm_id": "three",
            "company_id": 1
          },
          {
            "id": "2+gRtcb5tg4K0Ofh5ivnkMeCUA1VtHM3qFtddVqwdZk=",
            "name": "github.io",
            "sm_id": "three",
            "company_id": 2
          },
          {
            "id": "glty49efnDfQZkQXBoGQ5x4Xarw1Zz3FXNDQ8y6qZQo=",
            "name": "mediafire.com",
            "sm_id": "three",
            "company_id": 3
          },
          {
            "id": "RjQ9HGpc/WzGuQkCm9C9JAoimFZMCZWsm7jOh/PJQq8=",
            "name": "state.tx.us",
            "sm_id": "three",
            "company_id": 4
          },
          {
            "id": "2+gRtcb5tg4K0Ofh5ivnkMeCUA1VtHM3qFtddVqwdZk=",
            "name": "netlog.com",
            "sm_id": "three",
            "company_id": 5
          },
          {
            "id": "glty49efnDfQZkQXBoGQ5x4Xarw1Zz3FXNDQ8y6qZQo=",
            "name": "last.fm",
            "sm_id": "three",
            "company_id": 6
          },
          {
            "id": "glty49efnDfQZkQXBoGQ5x4Xarw1Zz3FXNDQ8y6qZQo=",
            "name": "rediff.com",
            "sm_id": "three",
            "company_id": 7
          },
          {
            "id": "glty49efnDfQZkQXBoGQ5x4Xarw1Zz3FXNDQ8y6qZQo=",
            "name": "google.com.hk",
            "sm_id": "three",
            "company_id": 8
          },
          {
            "id": "2+gRtcb5tg4K0Ofh5ivnkMeCUA1VtHM3qFtddVqwdZk=",
            "name": "army.mil",
            "sm_id": "three",
            "company_id": 9
          },
          {
            "id": "glty49efnDfQZkQXBoGQ5x4Xarw1Zz3FXNDQ8y6qZQo=",
            "name": "nydailynews.com",
            "sm_id": "three",
            "company_id": 10
          }
        ]
      }
    ]
  }
}
